public · PhyloTraits.jl
…
julia> using StatsBase # for predict function

julia> predict(ancStates)
31×2 DataFrame
 Row │ nodenumber  prediction 
     │ Int64       Float64    
─────┼────────────────────────
   1 │         -5    1.32139
   2 │         -8    1.03258
   3 │         -7    1.41575
   4 │         -6    1.39417
   5 │         -4    1.39961
   6 │         -3    1.51341
   7 │        -13    5.3192
   8 │        -12    4.51176
  ⋮  │     ⋮           ⋮
  25 │         10    6.94985
  26 │         11    4.78323
  27 │         12    5.33016
  28 │          1   -0.122604
  29 │         16    0.73989
  30 │          9    4.84236
  31 │          3    1.0695
               16 rows omitted

julia> predict(ancStates, interval = :prediction)
31×4 DataFrame
 Row │ nodenumber  prediction  lower       upper     
     │ Int64       Float64     Float64     Float64   
─────┼───────────────────────────────────────────────
   1 │         -5    1.32139   -0.33824     2.98102
   2 │         -8    1.03258   -0.589695    2.65485
   3 │         -7    1.41575   -0.140705    2.97221
   4 │         -6    1.39417   -0.107433    2.89577
   5 │         -4    1.39961   -0.102501    2.90171
   6 │         -3    1.51341   -0.220523    3.24733
   7 │        -13    5.3192     3.92279     6.71561
   8 │        -12    4.51176    2.89222     6.13131
  ⋮  │     ⋮           ⋮           ⋮           ⋮
  25 │         10    6.94985    6.94985     6.94985
  26 │         11    4.78323    4.78323     4.78323
  27 │         12    5.33016    5.33016     5.33016
  28 │          1   -0.122604  -0.122604   -0.122604
  29 │         16    0.73989    0.73989     0.73989
  30 │          9    4.84236    4.84236     4.84236
  31 │          3    1.0695     1.0695      1.0695
                                      16 rows omitted
…
